{
    "name": "stm32-l4-gcc13",
    "image": "gitea.sctbelpa/sctbelpa/stm32-l4:ubuntu-24.04",
    
    // Use this environment variable if you need to bind mount your local source code into a new container.
	"remoteEnv": {
		"LOCAL_WORKSPACE_FOLDER": "${localWorkspaceFolder}"
	}

    // Uncomment to connect as root instead. More info: https://aka.ms/dev-containers-non-root.
    // "remoteUser": "root"
}